%YAML 1.1
%TAG !u! tag:unity3d.com,2011:
--- !u!74 &7400000
AnimationClip:
  m_ObjectHideFlags: 0
  m_CorrespondingSourceObject: {fileID: 0}
  m_PrefabInstance: {fileID: 0}
  m_PrefabAsset: {fileID: 0}
  m_Name: Walk
  serializedVersion: 6
  m_Legacy: 0
  m_Compressed: 0
  m_UseHighQualityCurve: 1
  m_RotationCurves: []
  m_CompressedRotationCurves: []
  m_EulerCurves: []
  m_PositionCurves: []
  m_ScaleCurves: []
  m_FloatCurves: []
  m_PPtrCurves:
  - curve:
    - time: 0
      value: {fileID: 21300000, guid: 6062d4c2c95d8d64cb939b43adbf52eb, type: 3}
    - time: 0.083333336
      value: {fileID: 21300000, guid: c384ab186f49f1741b5f3aa6f7866456, type: 3}
    - time: 0.16666667
      value: {fileID: 21300000, guid: a5202fcbc9769754db9f98d5c81ad775, type: 3}
    - time: 0.25
      value: {fileID: 21300000, guid: 3359a8b7b4f67d24e8048ee40ebb7d8d, type: 3}
    - time: 0.33333334
      value: {fileID: 21300000, guid: 3f44be634b9aa2b4d8395fc40748b5c8, type: 3}
    - time: 0.41666666
      value: {fileID: 21300000, guid: 25bac504e6f9f5f46badcac549ef6ccf, type: 3}
    - time: 0.5
      value: {fileID: 21300000, guid: bbd222ec33ebe89499204456a2510629, type: 3}
    - time: 0.5833333
      value: {fileID: 21300000, guid: 8c78a360719c41445a275581aaf0938a, type: 3}
    - time: 0.6666667
      value: {fileID: 21300000, guid: a0865c1b0a4b627419b4dbc868e9d9ab, type: 3}
    - time: 0.75
      value: {fileID: 21300000, guid: 19b72d0b87eb880458914e6352ef5420, type: 3}
    attribute: m_Sprite
    path: 
    classID: 212
    script: {fileID: 0}
  m_SampleRate: 12
  m_WrapMode: 0
  m_Bounds:
    m_Center: {x: 0, y: 0, z: 0}
    m_Extent: {x: 0, y: 0, z: 0}
  m_ClipBindingConstant:
    genericBindings:
    - serializedVersion: 2
      path: 0
      attribute: 0
      script: {fileID: 0}
      typeID: 212
      customType: 23
      isPPtrCurve: 1
    pptrCurveMapping:
    - {fileID: 21300000, guid: 6062d4c2c95d8d64cb939b43adbf52eb, type: 3}
    - {fileID: 21300000, guid: c384ab186f49f1741b5f3aa6f7866456, type: 3}
    - {fileID: 21300000, guid: a5202fcbc9769754db9f98d5c81ad775, type: 3}
    - {fileID: 21300000, guid: 3359a8b7b4f67d24e8048ee40ebb7d8d, type: 3}
    - {fileID: 21300000, guid: 3f44be634b9aa2b4d8395fc40748b5c8, type: 3}
    - {fileID: 21300000, guid: 25bac504e6f9f5f46badcac549ef6ccf, type: 3}
    - {fileID: 21300000, guid: bbd222ec33ebe89499204456a2510629, type: 3}
    - {fileID: 21300000, guid: 8c78a360719c41445a275581aaf0938a, type: 3}
    - {fileID: 21300000, guid: a0865c1b0a4b627419b4dbc868e9d9ab, type: 3}
    - {fileID: 21300000, guid: 19b72d0b87eb880458914e6352ef5420, type: 3}
  m_AnimationClipSettings:
    serializedVersion: 2
    m_AdditiveReferencePoseClip: {fileID: 0}
    m_AdditiveReferencePoseTime: 0
    m_StartTime: 0
    m_StopTime: 0.8333333
    m_OrientationOffsetY: 0
    m_Level: 0
    m_CycleOffset: 0
    m_HasAdditiveReferencePose: 0
    m_LoopTime: 1
    m_LoopBlend: 0
    m_LoopBlendOrientation: 0
    m_LoopBlendPositionY: 0
    m_LoopBlendPositionXZ: 0
    m_KeepOriginalOrientation: 0
    m_KeepOriginalPositionY: 1
    m_KeepOriginalPositionXZ: 0
    m_HeightFromFeet: 0
    m_Mirror: 0
  m_EditorCurves: []
  m_EulerEditorCurves: []
  m_HasGenericRootTransform: 0
  m_HasMotionFloatCurves: 0
  m_Events: []
